M48
;DRILL file {KiCad 5.0.0} date Mon Aug 20 10:19:59 2018
;FORMAT={-:-/ absolute / inch / decimal}
FMAT,2
INCH,TZ
T1C0.0315
T2C0.0394
%
G90
G05
M72
T1
X1.4Y1.1734
X1.4Y1.075
X0.325Y0.975
X0.325Y0.675
X0.45Y1.375
X0.45Y0.775
X0.55Y1.375
X0.55Y0.775
X0.65Y1.375
X0.65Y0.775
X0.75Y1.375
X0.75Y0.775
X0.85Y1.375
X0.85Y0.775
X0.95Y1.375
X0.95Y0.775
X1.05Y1.375
X1.05Y0.775
X1.15Y1.375
X1.15Y0.775
X1.25Y1.375
X1.25Y0.775
X1.35Y1.375
X1.35Y0.775
X1.45Y1.375
X1.45Y0.775
X1.55Y1.375
X1.55Y0.775
X0.5Y1.225
X0.5Y0.925
X0.6Y1.225
X0.6Y0.925
X0.7Y1.225
X0.7Y0.925
X0.8Y1.225
X0.8Y0.925
X0.9Y1.225
X0.9Y0.925
X1.Y1.225
X1.Y0.925
X1.1Y1.225
X1.1Y0.925
X1.2Y1.225
X1.2Y0.925
X1.3Y1.225
X1.3Y0.925
X1.8Y1.325
X1.8Y1.225
X1.8Y1.125
X1.8Y1.025
X0.1016Y0.5
X0.2Y0.5
X1.5Y1.225
X1.5Y1.125
X1.5Y1.025
X1.5Y0.925
T2
X0.1Y0.9
X0.2Y0.9
X0.45Y0.4
X0.55Y0.4
X0.65Y0.4
X0.75Y0.4
X0.85Y0.4
X0.95Y0.4
X1.05Y0.4
X1.15Y0.4
X1.35Y0.55
X1.4484Y0.55
X0.45Y0.6
X0.55Y0.6
X0.65Y0.6
X0.75Y0.6
X0.85Y0.6
X0.95Y0.6
X1.05Y0.6
X1.15Y0.6
X0.4563Y1.575
X0.5547Y1.575
X0.6531Y1.575
X0.7516Y1.575
X0.85Y1.575
X1.3Y0.1
X1.4Y0.1
X1.5Y0.1
X0.4Y0.1
X0.5Y0.1
X0.6Y0.1
X0.2Y1.25
X0.2Y1.0925
X1.0563Y1.575
X1.1547Y1.575
X1.2531Y1.575
X1.3516Y1.575
X1.45Y1.575
X0.45Y0.5
X0.55Y0.5
X0.65Y0.5
X0.75Y0.5
X0.85Y0.5
X0.95Y0.5
X1.05Y0.5
X1.15Y0.5
X1.65Y0.6559
X1.65Y0.4
X1.8272Y0.6559
X1.8272Y0.4
T0
M30
