#VRML V2.0 utf8
#kicad StepUp wrl exported

Shape {
    appearance Appearance {material DEF PIN-01 Material {
        ambientIntensity 0.271
        diffuseColor 0.824 0.820 0.781
        specularColor 0.328 0.258 0.172
        emissiveColor 0.0 0.0 0.0
        shininess 0.70
        transparency 0.0
        }
    }
}
Shape {
    appearance Appearance {material DEF MET-01 Material {
        ambientIntensity 0.249999
        diffuseColor 0.298 0.298 0.298
        specularColor 0.398 0.398 0.398
        emissiveColor 0.0 0.0 0.0
        shininess 0.056122
        transparency 0.0
        }
    }
}
Shape {
    appearance Appearance {material DEF PIN-02 Material {
        ambientIntensity 0.379
        diffuseColor 0.859 0.738 0.496
        specularColor 0.137 0.145 0.184
        emissiveColor 0.0 0.0 0.0
        shininess 0.40
        transparency 0.0
        }
    }
}
Shape {
    appearance Appearance {material DEF IC-BODY-EPOXY-04 Material {
        ambientIntensity 0.293
        diffuseColor 0.148 0.145 0.145
        specularColor 0.180 0.168 0.160
        emissiveColor 0.0 0.0 0.0
        shininess 0.35
        transparency 0.0
        }
    }
}
Shape {
    appearance Appearance {material DEF RES-SMD-01 Material {
        diffuseColor 0.082 0.086 0.094
        emissiveColor 0.000 0.000 0.000
        specularColor 0.066 0.063 0.063
        ambientIntensity 0.638
        transparency 0.0
        shininess 0.3
        }
    }
}
Shape {
    appearance Appearance {material DEF IC-BODY-EPOXY-01 Material {
        ambientIntensity 0.117
        diffuseColor 0.250 0.262 0.281
        specularColor 0.316 0.281 0.176
        emissiveColor 0.0 0.0 0.0
        shininess 0.25
        transparency 0.0
        }
    }
}
Shape {
    appearance Appearance {material DEF CAP-CERAMIC-05 Material {
        ambientIntensity 0.179
        diffuseColor 0.273 0.273 0.273
        specularColor 0.203 0.188 0.176
        emissiveColor 0.0 0.0 0.0
        shininess 0.15
        transparency 0.0
        }
    }
}
Shape {
    appearance Appearance {material DEF CAP-CERAMIC-06 Material {
        ambientIntensity 0.453
        diffuseColor 0.379 0.270 0.215
        specularColor 0.223 0.223 0.223
        emissiveColor 0.0 0.0 0.0
        shininess 0.15
        transparency 0.0
        }
    }
}
Shape {
    appearance Appearance {material DEF RES-THT-01 Material {
        ambientIntensity 0.149
        diffuseColor 0.883 0.711 0.492
        specularColor 0.043 0.121 0.281
        emissiveColor 0.0 0.0 0.0
        shininess 0.40
        transparency 0.0
        }
    }
}
Shape {
    appearance Appearance {material DEF PLASTIC-BLUE-01 Material {
        ambientIntensity 0.565
        diffuseColor 0.137 0.402 0.727
        specularColor 0.359 0.379 0.270
        emissiveColor 0.0 0.0 0.0
        shininess 0.25
        transparency 0.0
        }
    }
}
Shape {
    appearance Appearance {material DEF PLASTIC-GREEN-01 Material {
        ambientIntensity 0.315
        diffuseColor 0.340 0.680 0.445
        specularColor 0.176 0.105 0.195
        emissiveColor 0.0 0.0 0.0
        shininess 0.25
        transparency 0.0
        }
    }
}
Shape {
    appearance Appearance {material DEF PLASTIC-ORANGE-01 Material {
        ambientIntensity 0.284
        diffuseColor 0.809 0.426 0.148
        specularColor 0.039 0.102 0.145
        emissiveColor 0.0 0.0 0.0
        shininess 0.25
        transparency 0.0
        }
    }
}
Shape {
    appearance Appearance {material DEF RED-BODY Material {
        ambientIntensity 0.683
        diffuseColor 0.700 0.100 0.050
        emissiveColor 0.000 0.000 0.000
        specularColor 0.300 0.400 0.150
        shininess 0.25
        transparency 0.0
        }
    }
}
Shape {
    appearance Appearance {material DEF CAP-CERAMIC-02 Material {
        ambientIntensity 0.683
        diffuseColor 0.578 0.336 0.352
        specularColor 0.105 0.273 0.270
        emissiveColor 0.0 0.0 0.0
        shininess 0.25
        transparency 0.0
        }
    }
}
Shape {
    appearance Appearance {material DEF PLASTIC-YELLOW-01 Material {
        ambientIntensity 0.522
        diffuseColor 0.832 0.680 0.066
        specularColor 0.160 0.203 0.320
        emissiveColor 0.0 0.0 0.0
        shininess 0.25
        transparency 0.0
        }
    }
}
Shape {
    appearance Appearance {material DEF PLASTIC-WHITE-01 Material {
        ambientIntensity 0.494
        diffuseColor 0.895 0.891 0.813
        specularColor 0.047 0.055 0.109
        emissiveColor 0.0 0.0 0.0
        shininess 0.25
        transparency 0.0
        }
    }
}
Shape {
    appearance Appearance {material DEF IC-LABEL-01 Material {
        ambientIntensity 0.082
        diffuseColor 0.691 0.664 0.598
        specularColor 0.000 0.000 0.000
        emissiveColor 0.0 0.0 0.0
        shininess 0.01
        transparency 0.0
        }
    }
}
Shape {
    appearance Appearance {material DEF LED-RED Material {
        ambientIntensity 0.789
        diffuseColor 0.700 0.100 0.050
        emissiveColor 0.000 0.000 0.000
        specularColor 0.300 0.400 0.150
        shininess 0.125
        transparency 0.10
        }
    }
}
Shape {
    appearance Appearance {material DEF LED-GREEN Material {
        ambientIntensity 0.789
        diffuseColor 0.400 0.700 0.150
        emissiveColor 0.000 0.000 0.000
        specularColor 0.600 0.300 0.100
        shininess 0.05
        transparency 0.10
        }
    }
}
Shape {
    appearance Appearance {material DEF LED-BLUE Material {
        ambientIntensity 0.789
        diffuseColor 0.100 0.250 0.700
        emissiveColor 0.000 0.000 0.000
        specularColor 0.500 0.600 0.300
        shininess 0.125
        transparency 0.10
        }
    }
}
Shape {
    appearance Appearance {material DEF LED-YELLOW Material {
        ambientIntensity 0.522
        diffuseColor 0.98 0.840 0.066
        specularColor 0.160 0.203 0.320
        emissiveColor 0.0 0.0 0.0
        shininess 0.125
        transparency 0.10
        }
    }
}
Shape {
    appearance Appearance {material DEF LED-WHITE Material {
        ambientIntensity 0.494
        diffuseColor 0.895 0.891 0.813
        specularColor 0.047 0.055 0.109
        emissiveColor 0.0 0.0 0.0
        shininess 0.125
        transparency 0.10
        }
    }
}
Shape {
    appearance Appearance {material DEF LED-GREY Material {
        ambientIntensity 0.494
        diffuseColor 0.27 0.25 0.27
        specularColor 0.5 0.5 0.6
        emissiveColor 0.0 0.0 0.0
        shininess 0.35
        transparency 0.10
        }
    }
}
Shape {
    appearance Appearance {material DEF LED-BLACK Material {
        ambientIntensity 0.494
        diffuseColor 0.1 0.05 0.1
        specularColor 0.6 0.5 0.6
        emissiveColor 0.0 0.0 0.0
        shininess 0.5
        transparency 0.0
        }
    }
}
Shape {
    appearance Appearance {material DEF GLASS-19 Material {
        ambientIntensity 2.018212
        diffuseColor 0.400769 0.441922 0.459091
        specularColor 0.573887 0.649271 0.810811
        emissiveColor 0.000000 0.000000 0.000000
        shininess 0.127273
        transparency 0.37
        }
    }
}
Shape {
    appearance Appearance {material DEF GLASS-29 Material {
        ambientIntensity 0.234375
        diffuseColor 0.566681 0.580872 0.580874
        specularColor 0.617761 0.429816 0.400140
        emissiveColor 0.000000 0.000000 0.000000
        shininess 0.072727
        transparency 0.38
        }
    }
}
Shape {
    appearance Appearance {material DEF GLASS-13 Material {
        ambientIntensity 0.250000
        diffuseColor 0.000000 0.631244 0.748016
        specularColor 0.915152 0.915152 0.915152
        emissiveColor 0.000000 0.000000 0.000000
        shininess 0.642424
        transparency 0.39
        }
    }
}
Shape {
    appearance Appearance {material DEF GLASS-GREEN Material {
        ambientIntensity 0.250000
        diffuseColor 0.000000 0.75 0.44
        specularColor 0.915152 0.915152 0.915152
        emissiveColor 0.000000 0.000000 0.000000
        shininess 0.642424
        transparency 0.39
        }
    }
}
Shape {
    appearance Appearance {material DEF GLASS-ORANGE Material {
        ambientIntensity 0.250000
        diffuseColor 0.75 0.44 0.000000
        specularColor 0.915152 0.915152 0.915152
        emissiveColor 0.000000 0.000000 0.000000
        shininess 0.642424
        transparency 0.39
        }
    }
}
Shape {
    appearance Appearance {material DEF BOARD-GREEN-02 Material {
        ambientIntensity 1
        diffuseColor 0.07 0.3 0.12
        specularColor 0.07 0.3 0.12
        emissiveColor 0.0 0.0 0.0
        shininess 0.40
        transparency 0.0
        }
    }
}
Shape {
    appearance Appearance {material DEF BOARD-BLUE-01 Material {
        ambientIntensity 1
        diffuseColor 0.07 0.12 0.3
        specularColor 0.07 0.12 0.3
        emissiveColor 0.0 0.0 0.0
        shininess 0.40
        transparency 0.0
        }
    }
}
Shape {
    appearance Appearance {material DEF BOARD-BLACK-03 Material {
        ambientIntensity 1
        diffuseColor 0.16 0.16 0.16
        specularColor 0.16 0.16 0.16
        emissiveColor 0.0 0.0 0.0
        shininess 0.40
        transparency 0.0
        }
    }
}
Shape {
    appearance Appearance {material DEF MET-ALUMINUM Material {
        ambientIntensity 0.256000
        diffuseColor 0.372322 0.371574 0.373173
        specularColor 0.556122 0.554201 0.556122
        emissiveColor 0.0 0.0 0.0
        shininess 0.127551
        transparency 0.0
        }
    }
}
Shape {
    appearance Appearance {material DEF MET-BRONZE Material {
        ambientIntensity 0.022727
        diffuseColor 0.714 0.4284 0.18144
        specularColor 0.393548 0.271906 0.166721
        emissiveColor 0.000000 0.000000 0.000000
        shininess 0.2
        transparency 0.0
        }
    }
}
Shape {
    appearance Appearance {material DEF MET-SILVER Material {
        ambientIntensity 0.022727
        diffuseColor 0.50754 0.50754 0.50754
        specularColor 0.508273 0.508273 0.508273
        emissiveColor 0.000000 0.000000 0.000000
        shininess 0.4
        transparency 0.0
        }
    }
}
Shape {
    appearance Appearance {material DEF MET-COPPER Material {
        ambientIntensity 0.022727
        diffuseColor 0.7038 0.27048 0.0828
        specularColor 0.780612 0.37 0.000000
        emissiveColor 0.000000 0.000000 0.000000
        shininess 0.2
        transparency 0.0
        }
    }
}
Shape { geometry IndexedFaceSet 
{ creaseAngle 0.50 coordIndex [0,1,2,-1,3,0,2,-1]
coord Coordinate { point [-0.399999 0.499999 0.999998,-0.399999 0.499999 0,-0.499999 0.399999 0,-0.499999 0.399999 0.999998]
}}
appearance Appearance{material USE RED-BODY }}
Shape { geometry IndexedFaceSet 
{ creaseAngle 0.50 coordIndex [0,1,2,-1,3,0,2,-1]
coord Coordinate { point [0.399999 0.499999 0.999998,0.399999 0.499999 0,-0.399999 0.499999 0,-0.399999 0.499999 0.999998]
}}
appearance Appearance{material USE RED-BODY }}
Shape { geometry IndexedFaceSet 
{ creaseAngle 0.50 coordIndex [0,1,2,-1,3,0,2,-1]
coord Coordinate { point [-0.499999 0.399999 0.999998,-0.499999 0.399999 0,-0.499999 -0.399999 0,-0.499999 -0.399999 0.999998]
}}
appearance Appearance{material USE RED-BODY }}
Shape { geometry IndexedFaceSet 
{ creaseAngle 0.50 coordIndex [0,1,2,-1,3,4,5,-1,6,7,5,-1,8,9,10,-1,7,3,5,-1,11,12,13,-1,4,11,13,-1,2,14,15,-1,6,5,16,-1,0,2,15,-1,17,18,19,-1,20,8,21,-1,13,12,22,-1,8,10,21,-1,18,23,19,-1,9,24,25,-1,10,9,25,-1,19,23,26,-1,22,27,28,-1,0,15,29,-1,26,23,29,-1,13,22,28,-1,25,24,30,-1,23,0,29,-1,14,31,32,-1,15,14,32,-1,20,21,33,-1,26,29,34,-1,16,5,35,-1,5,36,35,-1,36,37,35,-1,32,31,38,-1,25,30,39,-1,30,40,39,-1,13,28,41,-1,36,13,41,-1,37,36,41,-1,33,21,42,-1,34,29,43,-1,27,44,45,-1,21,46,42,-1,28,27,45,-1,29,47,43,-1,32,38,48,-1,43,47,48,-1,47,32,48,-1,45,44,49,-1,42,46,50,-1,50,46,51,-1,37,41,52,-1,46,25,51,-1,25,39,51,-1,39,40,53,-1,40,54,53,-1,49,55,56,-1,50,51,57,-1,45,49,56,-1,53,54,58,-1,41,59,60,-1,52,41,60,-1,59,61,60,-1,58,62,63,-1,55,64,65,-1,53,58,63,-1,56,55,65,-1,57,51,66,-1,59,45,67,-1,45,56,67,-1,61,59,67,-1,51,68,66,-1,66,68,69,-1,61,67,70,-1,53,63,71,-1,69,68,71,-1,68,53,71,-1,65,64,72,-1,63,62,3,-1,62,73,3,-1,69,71,74,-1,65,72,75,-1,72,76,75,-1,70,67,77,-1,67,78,77,-1,3,73,79,-1,77,78,80,-1,76,1,0,-1,75,76,0,-1,79,11,4,-1,3,79,4,-1,65,75,18,-1,80,78,18,-1,74,71,81,-1,78,65,18,-1,71,7,81,-1,80,18,17,-1,81,7,6,-1]
coord Coordinate { point [-0.125984 -0.874014 0,-0.499999 -0.599999 0,-0.399999 -0.499999 0,-0.125984 -4.87401 0,-0.125984 -4.12598 0,0.125984 -4.12598 0,0.399999 -4.49999 0,0.125984 -4.87401 0,-0.399999 -7.49999 0,-0.499999 -7.39999 0,-0.125984 -7.12597 0,-0.499999 -4.39999 0,-0.499999 -3.59999 0,-0.125984 -3.87401 0,-0.499999 -0.399999 0,-0.125984 -0.125984 0,0.499999 -4.39999 0,0.499999 -1.4 0,0.125984 -1.12598 0,0.499999 -0.599999 0,0.399999 -7.49999 0,0.125984 -7.12597 0,-0.399999 -3.49999 0,0.125984 -0.874014 0,-0.499999 -6.59999 0,-0.125984 -6.874 0,0.399999 -0.499999 0,-0.499999 -3.39999 0,-0.125984 -3.12598 0,0.125984 -0.125984 0,-0.399999 -6.49999 0,-0.499999 0.399999 0,-0.125984 0.125984 0,0.499999 -7.39999 0,0.499999 -0.399999 0,0.499999 -3.59999 0,0.125984 -3.87401 0,0.399999 -3.49999 0,-0.399999 0.499999 0,-0.125984 -6.12597 0,-0.499999 -6.39999 0,0.125984 -3.12598 0,0.499999 -6.59999 0,0.499999 0.399999 0,-0.499999 -2.59999 0,-0.125984 -2.87401 0,0.125984 -6.874 0,0.125984 0.125984 0,0.399999 0.499999 0,-0.399999 -2.49999 0,0.399999 -6.49999 0,0.125984 -6.12597 0,0.499999 -3.39999 0,-0.125984 -5.874 0,-0.499999 -5.59999 0,-0.499999 -2.4 0,-0.125984 -2.12598 0,0.499999 -6.39999 0,-0.399999 -5.49999 0,0.125984 -2.87401 0,0.499999 -2.59999 0,0.399999 -2.49999 0,-0.499999 -5.39999 0,-0.125984 -5.12597 0,-0.499999 -1.6 0,-0.125984 -1.87401 0,0.499999 -5.59999 0,0.125984 -2.12598 0,0.125984 -5.874 0,0.399999 -5.49999 0,0.499999 -2.4 0,0.125984 -5.12597 0,-0.399999 -1.5 0,-0.499999 -4.59999 0,0.499999 -5.39999 0,-0.125984 -1.12598 0,-0.499999 -1.4 0,0.499999 -1.6 0,0.125984 -1.87401 0,-0.399999 -4.49999 0,0.399999 -1.5 0,0.499999 -4.59999 0]
}}
appearance Appearance{material USE RED-BODY }}
Shape { geometry IndexedFaceSet 
{ creaseAngle 0.50 coordIndex [0,1,2,-1,3,4,5,-1,3,6,7,-1,8,9,10,-1,3,5,6,-1,11,12,13,-1,11,13,4,-1,14,15,0,-1,16,3,7,-1,14,0,2,-1,17,18,19,-1,20,10,21,-1,22,12,11,-1,20,8,10,-1,17,23,18,-1,24,25,9,-1,24,9,8,-1,26,23,17,-1,27,28,22,-1,29,14,2,-1,29,23,26,-1,27,22,11,-1,30,25,24,-1,29,2,23,-1,31,32,15,-1,31,15,14,-1,33,20,21,-1,34,29,26,-1,35,3,16,-1,35,36,3,-1,35,37,36,-1,38,32,31,-1,39,30,24,-1,39,40,30,-1,41,27,11,-1,41,11,36,-1,41,36,37,-1,42,20,33,-1,43,29,34,-1,44,45,28,-1,42,46,20,-1,44,28,27,-1,43,47,29,-1,48,38,31,-1,48,47,43,-1,48,31,47,-1,49,45,44,-1,50,46,42,-1,51,46,50,-1,52,41,37,-1,51,24,46,-1,51,39,24,-1,53,40,39,-1,53,54,40,-1,55,56,49,-1,57,51,50,-1,55,49,44,-1,58,54,53,-1,59,60,41,-1,59,41,52,-1,59,61,60,-1,62,63,58,-1,64,65,56,-1,62,58,53,-1,64,56,55,-1,66,51,57,-1,67,44,60,-1,67,55,44,-1,67,60,61,-1,66,68,51,-1,69,68,66,-1,70,67,61,-1,71,62,53,-1,71,68,69,-1,71,53,68,-1,72,65,64,-1,5,63,62,-1,5,73,63,-1,74,71,69,-1,75,72,64,-1,75,76,72,-1,77,67,70,-1,77,78,67,-1,79,73,5,-1,80,78,77,-1,2,1,76,-1,2,76,75,-1,4,13,79,-1,4,79,5,-1,18,75,64,-1,18,78,80,-1,81,71,74,-1,18,64,78,-1,81,6,71,-1,19,18,80,-1,7,6,81,-1]
coord Coordinate { point [-0.399999 -0.499999 0.999998,-0.499999 -0.599999 0.999998,-0.125984 -0.874014 0.999998,0.125984 -4.12598 0.999998,-0.125984 -4.12598 0.999998,-0.125984 -4.87401 0.999998,0.125984 -4.87401 0.999998,0.399999 -4.49999 0.999998,-0.125984 -7.12597 0.999998,-0.499999 -7.39999 0.999998,-0.399999 -7.49999 0.999998,-0.125984 -3.87401 0.999998,-0.499999 -3.59999 0.999998,-0.499999 -4.39999 0.999998,-0.125984 -0.125984 0.999998,-0.499999 -0.399999 0.999998,0.499999 -4.39999 0.999998,0.499999 -0.599999 0.999998,0.125984 -1.12598 0.999998,0.499999 -1.4 0.999998,0.125984 -7.12597 0.999998,0.399999 -7.49999 0.999998,-0.399999 -3.49999 0.999998,0.125984 -0.874014 0.999998,-0.125984 -6.874 0.999998,-0.499999 -6.59999 0.999998,0.399999 -0.499999 0.999998,-0.125984 -3.12598 0.999998,-0.499999 -3.39999 0.999998,0.125984 -0.125984 0.999998,-0.399999 -6.49999 0.999998,-0.125984 0.125984 0.999998,-0.499999 0.399999 0.999998,0.499999 -7.39999 0.999998,0.499999 -0.399999 0.999998,0.499999 -3.59999 0.999998,0.125984 -3.87401 0.999998,0.399999 -3.49999 0.999998,-0.399999 0.499999 0.999998,-0.125984 -6.12597 0.999998,-0.499999 -6.39999 0.999998,0.125984 -3.12598 0.999998,0.499999 -6.59999 0.999998,0.499999 0.399999 0.999998,-0.125984 -2.87401 0.999998,-0.499999 -2.59999 0.999998,0.125984 -6.874 0.999998,0.125984 0.125984 0.999998,0.399999 0.499999 0.999998,-0.399999 -2.49999 0.999998,0.399999 -6.49999 0.999998,0.125984 -6.12597 0.999998,0.499999 -3.39999 0.999998,-0.125984 -5.874 0.999998,-0.499999 -5.59999 0.999998,-0.125984 -2.12598 0.999998,-0.499999 -2.4 0.999998,0.499999 -6.39999 0.999998,-0.399999 -5.49999 0.999998,0.499999 -2.59999 0.999998,0.125984 -2.87401 0.999998,0.399999 -2.49999 0.999998,-0.125984 -5.12597 0.999998,-0.499999 -5.39999 0.999998,-0.125984 -1.87401 0.999998,-0.499999 -1.6 0.999998,0.499999 -5.59999 0.999998,0.125984 -2.12598 0.999998,0.125984 -5.874 0.999998,0.399999 -5.49999 0.999998,0.499999 -2.4 0.999998,0.125984 -5.12597 0.999998,-0.399999 -1.5 0.999998,-0.499999 -4.59999 0.999998,0.499999 -5.39999 0.999998,-0.125984 -1.12598 0.999998,-0.499999 -1.4 0.999998,0.499999 -1.6 0.999998,0.125984 -1.87401 0.999998,-0.399999 -4.49999 0.999998,0.399999 -1.5 0.999998,0.499999 -4.59999 0.999998]
}}
appearance Appearance{material USE RED-BODY }}
Shape { geometry IndexedFaceSet 
{ creaseAngle 0.50 coordIndex [0,1,2,-1,3,0,2,-1]
coord Coordinate { point [0.499999 0.399999 0.999998,0.499999 0.399999 0,0.399999 0.499999 0,0.399999 0.499999 0.999998]
}}
appearance Appearance{material USE RED-BODY }}
Shape { geometry IndexedFaceSet 
{ creaseAngle 0.50 coordIndex [0,1,2,-1,3,0,2,-1]
coord Coordinate { point [-0.499999 -0.399999 0.999998,-0.499999 -0.399999 0,-0.399999 -0.499999 0,-0.399999 -0.499999 0.999998]
}}
appearance Appearance{material USE RED-BODY }}
Shape { geometry IndexedFaceSet 
{ creaseAngle 0.50 coordIndex [0,1,2,-1,3,0,2,-1]
coord Coordinate { point [0.499999 -0.399999 0.999998,0.499999 -0.399999 0,0.499999 0.399999 0,0.499999 0.399999 0.999998]
}}
appearance Appearance{material USE RED-BODY }}
Shape { geometry IndexedFaceSet 
{ creaseAngle 0.50 coordIndex [0,1,2,-1,3,0,2,-1]
coord Coordinate { point [-0.399999 -0.499999 0.999998,-0.399999 -0.499999 0,-0.499999 -0.599999 0,-0.499999 -0.599999 0.999998]
}}
appearance Appearance{material USE RED-BODY }}
Shape { geometry IndexedFaceSet 
{ creaseAngle 0.50 coordIndex [0,1,2,-1,3,0,2,-1]
coord Coordinate { point [0.399999 -0.499999 0.999998,0.399999 -0.499999 0,0.499999 -0.399999 0,0.499999 -0.399999 0.999998]
}}
appearance Appearance{material USE RED-BODY }}
Shape { geometry IndexedFaceSet 
{ creaseAngle 0.50 coordIndex [0,1,2,-1,3,0,2,-1]
coord Coordinate { point [-0.499999 -0.599999 0.999998,-0.499999 -0.599999 0,-0.499999 -1.4 0,-0.499999 -1.4 0.999998]
}}
appearance Appearance{material USE RED-BODY }}
Shape { geometry IndexedFaceSet 
{ creaseAngle 0.50 coordIndex [0,1,2,-1,3,0,2,-1]
coord Coordinate { point [0.499999 -0.599999 0.999998,0.499999 -0.599999 0,0.399999 -0.499999 0,0.399999 -0.499999 0.999998]
}}
appearance Appearance{material USE RED-BODY }}
Shape { geometry IndexedFaceSet 
{ creaseAngle 0.50 coordIndex [0,1,2,-1,3,0,2,-1]
coord Coordinate { point [-0.499999 -1.4 0.999998,-0.499999 -1.4 0,-0.399999 -1.5 0,-0.399999 -1.5 0.999998]
}}
appearance Appearance{material USE RED-BODY }}
Shape { geometry IndexedFaceSet 
{ creaseAngle 0.50 coordIndex [0,1,2,-1,3,0,2,-1]
coord Coordinate { point [0.499999 -1.4 0.999998,0.499999 -1.4 0,0.499999 -0.599999 0,0.499999 -0.599999 0.999998]
}}
appearance Appearance{material USE RED-BODY }}
Shape { geometry IndexedFaceSet 
{ creaseAngle 0.50 coordIndex [0,1,2,-1,3,0,2,-1]
coord Coordinate { point [-0.399999 -1.5 0.999998,-0.399999 -1.5 0,-0.499999 -1.6 0,-0.499999 -1.6 0.999998]
}}
appearance Appearance{material USE RED-BODY }}
Shape { geometry IndexedFaceSet 
{ creaseAngle 0.50 coordIndex [0,1,2,-1,3,0,2,-1]
coord Coordinate { point [0.399999 -1.5 0.999998,0.399999 -1.5 0,0.499999 -1.4 0,0.499999 -1.4 0.999998]
}}
appearance Appearance{material USE RED-BODY }}
Shape { geometry IndexedFaceSet 
{ creaseAngle 0.50 coordIndex [0,1,2,-1,3,0,2,-1]
coord Coordinate { point [-0.499999 -1.6 0.999998,-0.499999 -1.6 0,-0.499999 -2.4 0,-0.499999 -2.4 0.999998]
}}
appearance Appearance{material USE RED-BODY }}
Shape { geometry IndexedFaceSet 
{ creaseAngle 0.50 coordIndex [0,1,2,-1,3,0,2,-1]
coord Coordinate { point [0.499999 -1.6 0.999998,0.499999 -1.6 0,0.399999 -1.5 0,0.399999 -1.5 0.999998]
}}
appearance Appearance{material USE RED-BODY }}
Shape { geometry IndexedFaceSet 
{ creaseAngle 0.50 coordIndex [0,1,2,-1,3,0,2,-1]
coord Coordinate { point [-0.499999 -2.4 0.999998,-0.499999 -2.4 0,-0.399999 -2.49999 0,-0.399999 -2.49999 0.999998]
}}
appearance Appearance{material USE RED-BODY }}
Shape { geometry IndexedFaceSet 
{ creaseAngle 0.50 coordIndex [0,1,2,-1,3,0,2,-1]
coord Coordinate { point [0.499999 -2.4 0.999998,0.499999 -2.4 0,0.499999 -1.6 0,0.499999 -1.6 0.999998]
}}
appearance Appearance{material USE RED-BODY }}
Shape { geometry IndexedFaceSet 
{ creaseAngle 0.50 coordIndex [0,1,2,-1,3,0,2,-1]
coord Coordinate { point [-0.399999 -2.49999 0.999998,-0.399999 -2.49999 0,-0.499999 -2.59999 0,-0.499999 -2.59999 0.999998]
}}
appearance Appearance{material USE RED-BODY }}
Shape { geometry IndexedFaceSet 
{ creaseAngle 0.50 coordIndex [0,1,2,-1,3,0,2,-1]
coord Coordinate { point [0.399999 -2.49999 0.999998,0.399999 -2.49999 0,0.499999 -2.4 0,0.499999 -2.4 0.999998]
}}
appearance Appearance{material USE RED-BODY }}
Shape { geometry IndexedFaceSet 
{ creaseAngle 0.50 coordIndex [0,1,2,-1,3,0,2,-1]
coord Coordinate { point [-0.499999 -2.59999 0.999998,-0.499999 -2.59999 0,-0.499999 -3.39999 0,-0.499999 -3.39999 0.999998]
}}
appearance Appearance{material USE RED-BODY }}
Shape { geometry IndexedFaceSet 
{ creaseAngle 0.50 coordIndex [0,1,2,-1,3,0,2,-1]
coord Coordinate { point [0.499999 -2.59999 0.999998,0.499999 -2.59999 0,0.399999 -2.49999 0,0.399999 -2.49999 0.999998]
}}
appearance Appearance{material USE RED-BODY }}
Shape { geometry IndexedFaceSet 
{ creaseAngle 0.50 coordIndex [0,1,2,-1,3,0,2,-1]
coord Coordinate { point [-0.499999 -3.39999 0.999998,-0.499999 -3.39999 0,-0.399999 -3.49999 0,-0.399999 -3.49999 0.999998]
}}
appearance Appearance{material USE RED-BODY }}
Shape { geometry IndexedFaceSet 
{ creaseAngle 0.50 coordIndex [0,1,2,-1,3,0,2,-1]
coord Coordinate { point [0.499999 -3.39999 0.999998,0.499999 -3.39999 0,0.499999 -2.59999 0,0.499999 -2.59999 0.999998]
}}
appearance Appearance{material USE RED-BODY }}
Shape { geometry IndexedFaceSet 
{ creaseAngle 0.50 coordIndex [0,1,2,-1,3,0,2,-1]
coord Coordinate { point [-0.399999 -3.49999 0.999998,-0.399999 -3.49999 0,-0.499999 -3.59999 0,-0.499999 -3.59999 0.999998]
}}
appearance Appearance{material USE RED-BODY }}
Shape { geometry IndexedFaceSet 
{ creaseAngle 0.50 coordIndex [0,1,2,-1,3,0,2,-1]
coord Coordinate { point [0.399999 -3.49999 0.999998,0.399999 -3.49999 0,0.499999 -3.39999 0,0.499999 -3.39999 0.999998]
}}
appearance Appearance{material USE RED-BODY }}
Shape { geometry IndexedFaceSet 
{ creaseAngle 0.50 coordIndex [0,1,2,-1,3,0,2,-1]
coord Coordinate { point [-0.499999 -3.59999 0.999998,-0.499999 -3.59999 0,-0.499999 -4.39999 0,-0.499999 -4.39999 0.999998]
}}
appearance Appearance{material USE RED-BODY }}
Shape { geometry IndexedFaceSet 
{ creaseAngle 0.50 coordIndex [0,1,2,-1,3,0,2,-1]
coord Coordinate { point [0.499999 -3.59999 0.999998,0.499999 -3.59999 0,0.399999 -3.49999 0,0.399999 -3.49999 0.999998]
}}
appearance Appearance{material USE RED-BODY }}
Shape { geometry IndexedFaceSet 
{ creaseAngle 0.50 coordIndex [0,1,2,-1,3,0,2,-1]
coord Coordinate { point [-0.499999 -4.39999 0.999998,-0.499999 -4.39999 0,-0.399999 -4.49999 0,-0.399999 -4.49999 0.999998]
}}
appearance Appearance{material USE RED-BODY }}
Shape { geometry IndexedFaceSet 
{ creaseAngle 0.50 coordIndex [0,1,2,-1,3,0,2,-1]
coord Coordinate { point [0.499999 -4.39999 0.999998,0.499999 -4.39999 0,0.499999 -3.59999 0,0.499999 -3.59999 0.999998]
}}
appearance Appearance{material USE RED-BODY }}
Shape { geometry IndexedFaceSet 
{ creaseAngle 0.50 coordIndex [0,1,2,-1,3,0,2,-1]
coord Coordinate { point [-0.399999 -4.49999 0.999998,-0.399999 -4.49999 0,-0.499999 -4.59999 0,-0.499999 -4.59999 0.999998]
}}
appearance Appearance{material USE RED-BODY }}
Shape { geometry IndexedFaceSet 
{ creaseAngle 0.50 coordIndex [0,1,2,-1,3,0,2,-1]
coord Coordinate { point [0.399999 -4.49999 0.999998,0.399999 -4.49999 0,0.499999 -4.39999 0,0.499999 -4.39999 0.999998]
}}
appearance Appearance{material USE RED-BODY }}
Shape { geometry IndexedFaceSet 
{ creaseAngle 0.50 coordIndex [0,1,2,-1,3,0,2,-1]
coord Coordinate { point [-0.499999 -4.59999 0.999998,-0.499999 -4.59999 0,-0.499999 -5.39999 0,-0.499999 -5.39999 0.999998]
}}
appearance Appearance{material USE RED-BODY }}
Shape { geometry IndexedFaceSet 
{ creaseAngle 0.50 coordIndex [0,1,2,-1,3,0,2,-1]
coord Coordinate { point [0.499999 -4.59999 0.999998,0.499999 -4.59999 0,0.399999 -4.49999 0,0.399999 -4.49999 0.999998]
}}
appearance Appearance{material USE RED-BODY }}
Shape { geometry IndexedFaceSet 
{ creaseAngle 0.50 coordIndex [0,1,2,-1,3,0,2,-1]
coord Coordinate { point [-0.499999 -5.39999 0.999998,-0.499999 -5.39999 0,-0.399999 -5.49999 0,-0.399999 -5.49999 0.999998]
}}
appearance Appearance{material USE RED-BODY }}
Shape { geometry IndexedFaceSet 
{ creaseAngle 0.50 coordIndex [0,1,2,-1,3,0,2,-1]
coord Coordinate { point [0.499999 -5.39999 0.999998,0.499999 -5.39999 0,0.499999 -4.59999 0,0.499999 -4.59999 0.999998]
}}
appearance Appearance{material USE RED-BODY }}
Shape { geometry IndexedFaceSet 
{ creaseAngle 0.50 coordIndex [0,1,2,-1,3,0,2,-1]
coord Coordinate { point [-0.399999 -5.49999 0.999998,-0.399999 -5.49999 0,-0.499999 -5.59999 0,-0.499999 -5.59999 0.999998]
}}
appearance Appearance{material USE RED-BODY }}
Shape { geometry IndexedFaceSet 
{ creaseAngle 0.50 coordIndex [0,1,2,-1,3,0,2,-1]
coord Coordinate { point [0.399999 -5.49999 0.999998,0.399999 -5.49999 0,0.499999 -5.39999 0,0.499999 -5.39999 0.999998]
}}
appearance Appearance{material USE RED-BODY }}
Shape { geometry IndexedFaceSet 
{ creaseAngle 0.50 coordIndex [0,1,2,-1,3,0,2,-1]
coord Coordinate { point [-0.499999 -5.59999 0.999998,-0.499999 -5.59999 0,-0.499999 -6.39999 0,-0.499999 -6.39999 0.999998]
}}
appearance Appearance{material USE RED-BODY }}
Shape { geometry IndexedFaceSet 
{ creaseAngle 0.50 coordIndex [0,1,2,-1,3,0,2,-1]
coord Coordinate { point [0.499999 -5.59999 0.999998,0.499999 -5.59999 0,0.399999 -5.49999 0,0.399999 -5.49999 0.999998]
}}
appearance Appearance{material USE RED-BODY }}
Shape { geometry IndexedFaceSet 
{ creaseAngle 0.50 coordIndex [0,1,2,-1,3,0,2,-1]
coord Coordinate { point [-0.499999 -6.39999 0.999998,-0.499999 -6.39999 0,-0.399999 -6.49999 0,-0.399999 -6.49999 0.999998]
}}
appearance Appearance{material USE RED-BODY }}
Shape { geometry IndexedFaceSet 
{ creaseAngle 0.50 coordIndex [0,1,2,-1,3,0,2,-1]
coord Coordinate { point [0.499999 -6.39999 0.999998,0.499999 -6.39999 0,0.499999 -5.59999 0,0.499999 -5.59999 0.999998]
}}
appearance Appearance{material USE RED-BODY }}
Shape { geometry IndexedFaceSet 
{ creaseAngle 0.50 coordIndex [0,1,2,-1,3,0,2,-1]
coord Coordinate { point [-0.399999 -6.49999 0.999998,-0.399999 -6.49999 0,-0.499999 -6.59999 0,-0.499999 -6.59999 0.999998]
}}
appearance Appearance{material USE RED-BODY }}
Shape { geometry IndexedFaceSet 
{ creaseAngle 0.50 coordIndex [0,1,2,-1,3,0,2,-1]
coord Coordinate { point [0.399999 -6.49999 0.999998,0.399999 -6.49999 0,0.499999 -6.39999 0,0.499999 -6.39999 0.999998]
}}
appearance Appearance{material USE RED-BODY }}
Shape { geometry IndexedFaceSet 
{ creaseAngle 0.50 coordIndex [0,1,2,-1,3,0,2,-1]
coord Coordinate { point [-0.499999 -6.59999 0.999998,-0.499999 -6.59999 0,-0.499999 -7.39999 0,-0.499999 -7.39999 0.999998]
}}
appearance Appearance{material USE RED-BODY }}
Shape { geometry IndexedFaceSet 
{ creaseAngle 0.50 coordIndex [0,1,2,-1,3,0,2,-1]
coord Coordinate { point [0.499999 -6.59999 0.999998,0.499999 -6.59999 0,0.399999 -6.49999 0,0.399999 -6.49999 0.999998]
}}
appearance Appearance{material USE RED-BODY }}
Shape { geometry IndexedFaceSet 
{ creaseAngle 0.50 coordIndex [0,1,2,-1,3,0,2,-1]
coord Coordinate { point [-0.499999 -7.39999 0.999998,-0.499999 -7.39999 0,-0.399999 -7.49999 0,-0.399999 -7.49999 0.999998]
}}
appearance Appearance{material USE RED-BODY }}
Shape { geometry IndexedFaceSet 
{ creaseAngle 0.50 coordIndex [0,1,2,-1,3,0,2,-1]
coord Coordinate { point [0.499999 -7.39999 0.999998,0.499999 -7.39999 0,0.499999 -6.59999 0,0.499999 -6.59999 0.999998]
}}
appearance Appearance{material USE RED-BODY }}
Shape { geometry IndexedFaceSet 
{ creaseAngle 0.50 coordIndex [0,1,2,-1,3,0,2,-1]
coord Coordinate { point [-0.399999 -7.49999 0.999998,-0.399999 -7.49999 0,0.399999 -7.49999 0,0.399999 -7.49999 0.999998]
}}
appearance Appearance{material USE RED-BODY }}
Shape { geometry IndexedFaceSet 
{ creaseAngle 0.50 coordIndex [0,1,2,-1,3,0,2,-1]
coord Coordinate { point [0.399999 -7.49999 0.999998,0.399999 -7.49999 0,0.499999 -7.39999 0,0.499999 -7.39999 0.999998]
}}
appearance Appearance{material USE RED-BODY }}
Shape { geometry IndexedFaceSet 
{ creaseAngle 0.50 coordIndex [0,1,2,-1,3,0,2,-1]
coord Coordinate { point [-0.125984 -7.12597 -1.11811,0.125984 -7.12597 -1.11811,0.125984 -7.12597 0,-0.125984 -7.12597 0]
}}
appearance Appearance{material USE PIN-02 }}
Shape { geometry IndexedFaceSet 
{ creaseAngle 0.50 coordIndex [0,1,2,-1,0,2,3,-1]
coord Coordinate { point [0.125984 -7.12597 0,0.125984 -7.12597 -1.11811,0.125984 -6.874 -1.11811,0.125984 -6.874 0]
}}
appearance Appearance{material USE PIN-02 }}
Shape { geometry IndexedFaceSet 
{ creaseAngle 0.50 coordIndex [0,1,2,-1,0,2,3,-1]
coord Coordinate { point [0.125984 -6.874 0,0.125984 -6.874 -1.11811,-0.125984 -6.874 -1.11811,-0.125984 -6.874 0]
}}
appearance Appearance{material USE PIN-02 }}
Shape { geometry IndexedFaceSet 
{ creaseAngle 0.50 coordIndex [0,1,2,-1,3,0,2,-1]
coord Coordinate { point [-0.125984 -6.874 -1.11811,-0.125984 -7.12597 -1.11811,-0.125984 -7.12597 0,-0.125984 -6.874 0]
}}
appearance Appearance{material USE PIN-02 }}
Shape { geometry IndexedFaceSet 
{ creaseAngle 0.50 coordIndex [0,1,2,-1,0,2,3,-1]
coord Coordinate { point [0.125984 -5.874 0,0.125984 -5.874 -1.11811,-0.125984 -5.874 -1.11811,-0.125984 -5.874 0]
}}
appearance Appearance{material USE PIN-02 }}
Shape { geometry IndexedFaceSet 
{ creaseAngle 0.50 coordIndex [0,1,2,-1,3,0,2,-1]
coord Coordinate { point [-0.125984 -5.874 -1.11811,-0.125984 -6.12597 -1.11811,-0.125984 -6.12597 0,-0.125984 -5.874 0]
}}
appearance Appearance{material USE PIN-02 }}
Shape { geometry IndexedFaceSet 
{ creaseAngle 0.50 coordIndex [0,1,2,-1,3,0,2,-1]
coord Coordinate { point [-0.125984 -6.12597 -1.11811,0.125984 -6.12597 -1.11811,0.125984 -6.12597 0,-0.125984 -6.12597 0]
}}
appearance Appearance{material USE PIN-02 }}
Shape { geometry IndexedFaceSet 
{ creaseAngle 0.50 coordIndex [0,1,2,-1,0,2,3,-1]
coord Coordinate { point [0.125984 -6.12597 0,0.125984 -6.12597 -1.11811,0.125984 -5.874 -1.11811,0.125984 -5.874 0]
}}
appearance Appearance{material USE PIN-02 }}
Shape { geometry IndexedFaceSet 
{ creaseAngle 0.50 coordIndex [0,1,2,-1,0,2,3,-1]
coord Coordinate { point [0.125984 -3.12598 0,0.125984 -3.12598 -1.11811,0.125984 -2.87401 -1.11811,0.125984 -2.87401 0]
}}
appearance Appearance{material USE PIN-02 }}
Shape { geometry IndexedFaceSet 
{ creaseAngle 0.50 coordIndex [0,1,2,-1,0,2,3,-1]
coord Coordinate { point [0.125984 -2.87401 0,0.125984 -2.87401 -1.11811,-0.125984 -2.87401 -1.11811,-0.125984 -2.87401 0]
}}
appearance Appearance{material USE PIN-02 }}
Shape { geometry IndexedFaceSet 
{ creaseAngle 0.50 coordIndex [0,1,2,-1,3,0,2,-1]
coord Coordinate { point [-0.125984 -2.87401 -1.11811,-0.125984 -3.12598 -1.11811,-0.125984 -3.12598 0,-0.125984 -2.87401 0]
}}
appearance Appearance{material USE PIN-02 }}
Shape { geometry IndexedFaceSet 
{ creaseAngle 0.50 coordIndex [0,1,2,-1,3,0,2,-1]
coord Coordinate { point [-0.125984 -3.12598 -1.11811,0.125984 -3.12598 -1.11811,0.125984 -3.12598 0,-0.125984 -3.12598 0]
}}
appearance Appearance{material USE PIN-02 }}
Shape { geometry IndexedFaceSet 
{ creaseAngle 0.50 coordIndex [0,1,2,-1,0,2,3,-1]
coord Coordinate { point [0.125984 -4.87401 0,0.125984 -4.87401 -1.11811,-0.125984 -4.87401 -1.11811,-0.125984 -4.87401 0]
}}
appearance Appearance{material USE PIN-02 }}
Shape { geometry IndexedFaceSet 
{ creaseAngle 0.50 coordIndex [0,1,2,-1,3,0,2,-1]
coord Coordinate { point [-0.125984 -4.87401 -1.11811,-0.125984 -5.12597 -1.11811,-0.125984 -5.12597 0,-0.125984 -4.87401 0]
}}
appearance Appearance{material USE PIN-02 }}
Shape { geometry IndexedFaceSet 
{ creaseAngle 0.50 coordIndex [0,1,2,-1,3,0,2,-1]
coord Coordinate { point [-0.125984 -5.12597 -1.11811,0.125984 -5.12597 -1.11811,0.125984 -5.12597 0,-0.125984 -5.12597 0]
}}
appearance Appearance{material USE PIN-02 }}
Shape { geometry IndexedFaceSet 
{ creaseAngle 0.50 coordIndex [0,1,2,-1,0,2,3,-1]
coord Coordinate { point [0.125984 -5.12597 0,0.125984 -5.12597 -1.11811,0.125984 -4.87401 -1.11811,0.125984 -4.87401 0]
}}
appearance Appearance{material USE PIN-02 }}
Shape { geometry IndexedFaceSet 
{ creaseAngle 0.50 coordIndex [0,1,2,-1,0,2,3,-1]
coord Coordinate { point [0.125984 -4.12598 0,0.125984 -4.12598 -1.11811,0.125984 -3.87401 -1.11811,0.125984 -3.87401 0]
}}
appearance Appearance{material USE PIN-02 }}
Shape { geometry IndexedFaceSet 
{ creaseAngle 0.50 coordIndex [0,1,2,-1,0,2,3,-1]
coord Coordinate { point [0.125984 -3.87401 0,0.125984 -3.87401 -1.11811,-0.125984 -3.87401 -1.11811,-0.125984 -3.87401 0]
}}
appearance Appearance{material USE PIN-02 }}
Shape { geometry IndexedFaceSet 
{ creaseAngle 0.50 coordIndex [0,1,2,-1,3,0,2,-1]
coord Coordinate { point [-0.125984 -3.87401 -1.11811,-0.125984 -4.12598 -1.11811,-0.125984 -4.12598 0,-0.125984 -3.87401 0]
}}
appearance Appearance{material USE PIN-02 }}
Shape { geometry IndexedFaceSet 
{ creaseAngle 0.50 coordIndex [0,1,2,-1,3,0,2,-1]
coord Coordinate { point [-0.125984 -4.12598 -1.11811,0.125984 -4.12598 -1.11811,0.125984 -4.12598 0,-0.125984 -4.12598 0]
}}
appearance Appearance{material USE PIN-02 }}
Shape { geometry IndexedFaceSet 
{ creaseAngle 0.50 coordIndex [0,1,2,-1,0,2,3,-1]
coord Coordinate { point [0.125984 -0.874014 0,0.125984 -0.874014 -1.11811,-0.125984 -0.874014 -1.11811,-0.125984 -0.874014 0]
}}
appearance Appearance{material USE PIN-02 }}
Shape { geometry IndexedFaceSet 
{ creaseAngle 0.50 coordIndex [0,1,2,-1,3,0,2,-1]
coord Coordinate { point [-0.125984 -0.874014 -1.11811,-0.125984 -1.12598 -1.11811,-0.125984 -1.12598 0,-0.125984 -0.874014 0]
}}
appearance Appearance{material USE PIN-02 }}
Shape { geometry IndexedFaceSet 
{ creaseAngle 0.50 coordIndex [0,1,2,-1,3,0,2,-1]
coord Coordinate { point [-0.125984 -1.12598 -1.11811,0.125984 -1.12598 -1.11811,0.125984 -1.12598 0,-0.125984 -1.12598 0]
}}
appearance Appearance{material USE PIN-02 }}
Shape { geometry IndexedFaceSet 
{ creaseAngle 0.50 coordIndex [0,1,2,-1,0,2,3,-1]
coord Coordinate { point [0.125984 -1.12598 0,0.125984 -1.12598 -1.11811,0.125984 -0.874014 -1.11811,0.125984 -0.874014 0]
}}
appearance Appearance{material USE PIN-02 }}
Shape { geometry IndexedFaceSet 
{ creaseAngle 0.50 coordIndex [0,1,2,-1,3,0,2,-1]
coord Coordinate { point [-0.125984 -2.12598 -1.11811,0.125984 -2.12598 -1.11811,0.125984 -2.12598 0,-0.125984 -2.12598 0]
}}
appearance Appearance{material USE PIN-02 }}
Shape { geometry IndexedFaceSet 
{ creaseAngle 0.50 coordIndex [0,1,2,-1,0,2,3,-1]
coord Coordinate { point [0.125984 -2.12598 0,0.125984 -2.12598 -1.11811,0.125984 -1.87401 -1.11811,0.125984 -1.87401 0]
}}
appearance Appearance{material USE PIN-02 }}
Shape { geometry IndexedFaceSet 
{ creaseAngle 0.50 coordIndex [0,1,2,-1,0,2,3,-1]
coord Coordinate { point [0.125984 -1.87401 0,0.125984 -1.87401 -1.11811,-0.125984 -1.87401 -1.11811,-0.125984 -1.87401 0]
}}
appearance Appearance{material USE PIN-02 }}
Shape { geometry IndexedFaceSet 
{ creaseAngle 0.50 coordIndex [0,1,2,-1,3,0,2,-1]
coord Coordinate { point [-0.125984 -1.87401 -1.11811,-0.125984 -2.12598 -1.11811,-0.125984 -2.12598 0,-0.125984 -1.87401 0]
}}
appearance Appearance{material USE PIN-02 }}
Shape { geometry IndexedFaceSet 
{ creaseAngle 0.50 coordIndex [0,1,2,-1,0,2,3,-1]
coord Coordinate { point [0.125984 -0.125984 0,0.125984 -0.125984 -1.11811,0.125984 0.125984 -1.11811,0.125984 0.125984 0]
}}
appearance Appearance{material USE PIN-02 }}
Shape { geometry IndexedFaceSet 
{ creaseAngle 0.50 coordIndex [0,1,2,-1,0,2,3,-1]
coord Coordinate { point [0.125984 0.125984 0,0.125984 0.125984 -1.11811,-0.125984 0.125984 -1.11811,-0.125984 0.125984 0]
}}
appearance Appearance{material USE PIN-02 }}
Shape { geometry IndexedFaceSet 
{ creaseAngle 0.50 coordIndex [0,1,2,-1,3,0,2,-1]
coord Coordinate { point [-0.125984 0.125984 -1.11811,-0.125984 -0.125984 -1.11811,-0.125984 -0.125984 0,-0.125984 0.125984 0]
}}
appearance Appearance{material USE PIN-02 }}
Shape { geometry IndexedFaceSet 
{ creaseAngle 0.50 coordIndex [0,1,2,-1,3,0,2,-1]
coord Coordinate { point [-0.125984 -0.125984 -1.11811,0.125984 -0.125984 -1.11811,0.125984 -0.125984 0,-0.125984 -0.125984 0]
}}
appearance Appearance{material USE PIN-02 }}
Shape { geometry IndexedFaceSet 
{ creaseAngle 0.50 coordIndex [0,1,2,-1,3,0,2,-1]
coord Coordinate { point [-0.125984 -7.12597 0.999998,0.125984 -7.12597 0.999998,0.125984 -7.12597 3.29921,-0.125984 -7.12597 3.29921]
}}
appearance Appearance{material USE PIN-02 }}
Shape { geometry IndexedFaceSet 
{ creaseAngle 0.50 coordIndex [0,1,2,-1,0,2,3,-1]
coord Coordinate { point [0.125984 -7.12597 3.29921,0.125984 -7.12597 0.999998,0.125984 -6.874 0.999998,0.125984 -6.874 3.29921]
}}
appearance Appearance{material USE PIN-02 }}
Shape { geometry IndexedFaceSet 
{ creaseAngle 0.50 coordIndex [0,1,2,-1,0,2,3,-1]
coord Coordinate { point [0.125984 -6.874 3.29921,0.125984 -6.874 0.999998,-0.125984 -6.874 0.999998,-0.125984 -6.874 3.29921]
}}
appearance Appearance{material USE PIN-02 }}
Shape { geometry IndexedFaceSet 
{ creaseAngle 0.50 coordIndex [0,1,2,-1,3,0,2,-1]
coord Coordinate { point [-0.125984 -6.874 0.999998,-0.125984 -7.12597 0.999998,-0.125984 -7.12597 3.29921,-0.125984 -6.874 3.29921]
}}
appearance Appearance{material USE PIN-02 }}
Shape { geometry IndexedFaceSet 
{ creaseAngle 0.50 coordIndex [0,1,2,-1,0,2,3,-1]
coord Coordinate { point [0.125984 -5.874 3.29921,0.125984 -5.874 0.999998,-0.125984 -5.874 0.999998,-0.125984 -5.874 3.29921]
}}
appearance Appearance{material USE PIN-02 }}
Shape { geometry IndexedFaceSet 
{ creaseAngle 0.50 coordIndex [0,1,2,-1,3,0,2,-1]
coord Coordinate { point [-0.125984 -5.874 0.999998,-0.125984 -6.12597 0.999998,-0.125984 -6.12597 3.29921,-0.125984 -5.874 3.29921]
}}
appearance Appearance{material USE PIN-02 }}
Shape { geometry IndexedFaceSet 
{ creaseAngle 0.50 coordIndex [0,1,2,-1,3,0,2,-1]
coord Coordinate { point [-0.125984 -6.12597 0.999998,0.125984 -6.12597 0.999998,0.125984 -6.12597 3.29921,-0.125984 -6.12597 3.29921]
}}
appearance Appearance{material USE PIN-02 }}
Shape { geometry IndexedFaceSet 
{ creaseAngle 0.50 coordIndex [0,1,2,-1,0,2,3,-1]
coord Coordinate { point [0.125984 -6.12597 3.29921,0.125984 -6.12597 0.999998,0.125984 -5.874 0.999998,0.125984 -5.874 3.29921]
}}
appearance Appearance{material USE PIN-02 }}
Shape { geometry IndexedFaceSet 
{ creaseAngle 0.50 coordIndex [0,1,2,-1,0,2,3,-1]
coord Coordinate { point [0.125984 -3.12598 3.29921,0.125984 -3.12598 0.999998,0.125984 -2.87401 0.999998,0.125984 -2.87401 3.29921]
}}
appearance Appearance{material USE PIN-02 }}
Shape { geometry IndexedFaceSet 
{ creaseAngle 0.50 coordIndex [0,1,2,-1,0,2,3,-1]
coord Coordinate { point [0.125984 -2.87401 3.29921,0.125984 -2.87401 0.999998,-0.125984 -2.87401 0.999998,-0.125984 -2.87401 3.29921]
}}
appearance Appearance{material USE PIN-02 }}
Shape { geometry IndexedFaceSet 
{ creaseAngle 0.50 coordIndex [0,1,2,-1,3,0,2,-1]
coord Coordinate { point [-0.125984 -2.87401 0.999998,-0.125984 -3.12598 0.999998,-0.125984 -3.12598 3.29921,-0.125984 -2.87401 3.29921]
}}
appearance Appearance{material USE PIN-02 }}
Shape { geometry IndexedFaceSet 
{ creaseAngle 0.50 coordIndex [0,1,2,-1,3,0,2,-1]
coord Coordinate { point [-0.125984 -3.12598 0.999998,0.125984 -3.12598 0.999998,0.125984 -3.12598 3.29921,-0.125984 -3.12598 3.29921]
}}
appearance Appearance{material USE PIN-02 }}
Shape { geometry IndexedFaceSet 
{ creaseAngle 0.50 coordIndex [0,1,2,-1,0,2,3,-1]
coord Coordinate { point [0.125984 -4.87401 3.29921,0.125984 -4.87401 0.999998,-0.125984 -4.87401 0.999998,-0.125984 -4.87401 3.29921]
}}
appearance Appearance{material USE PIN-02 }}
Shape { geometry IndexedFaceSet 
{ creaseAngle 0.50 coordIndex [0,1,2,-1,3,0,2,-1]
coord Coordinate { point [-0.125984 -4.87401 0.999998,-0.125984 -5.12597 0.999998,-0.125984 -5.12597 3.29921,-0.125984 -4.87401 3.29921]
}}
appearance Appearance{material USE PIN-02 }}
Shape { geometry IndexedFaceSet 
{ creaseAngle 0.50 coordIndex [0,1,2,-1,3,0,2,-1]
coord Coordinate { point [-0.125984 -5.12597 0.999998,0.125984 -5.12597 0.999998,0.125984 -5.12597 3.29921,-0.125984 -5.12597 3.29921]
}}
appearance Appearance{material USE PIN-02 }}
Shape { geometry IndexedFaceSet 
{ creaseAngle 0.50 coordIndex [0,1,2,-1,0,2,3,-1]
coord Coordinate { point [0.125984 -5.12597 3.29921,0.125984 -5.12597 0.999998,0.125984 -4.87401 0.999998,0.125984 -4.87401 3.29921]
}}
appearance Appearance{material USE PIN-02 }}
Shape { geometry IndexedFaceSet 
{ creaseAngle 0.50 coordIndex [0,1,2,-1,0,2,3,-1]
coord Coordinate { point [0.125984 -4.12598 3.29921,0.125984 -4.12598 0.999998,0.125984 -3.87401 0.999998,0.125984 -3.87401 3.29921]
}}
appearance Appearance{material USE PIN-02 }}
Shape { geometry IndexedFaceSet 
{ creaseAngle 0.50 coordIndex [0,1,2,-1,0,2,3,-1]
coord Coordinate { point [0.125984 -3.87401 3.29921,0.125984 -3.87401 0.999998,-0.125984 -3.87401 0.999998,-0.125984 -3.87401 3.29921]
}}
appearance Appearance{material USE PIN-02 }}
Shape { geometry IndexedFaceSet 
{ creaseAngle 0.50 coordIndex [0,1,2,-1,3,0,2,-1]
coord Coordinate { point [-0.125984 -3.87401 0.999998,-0.125984 -4.12598 0.999998,-0.125984 -4.12598 3.29921,-0.125984 -3.87401 3.29921]
}}
appearance Appearance{material USE PIN-02 }}
Shape { geometry IndexedFaceSet 
{ creaseAngle 0.50 coordIndex [0,1,2,-1,3,0,2,-1]
coord Coordinate { point [-0.125984 -4.12598 0.999998,0.125984 -4.12598 0.999998,0.125984 -4.12598 3.29921,-0.125984 -4.12598 3.29921]
}}
appearance Appearance{material USE PIN-02 }}
Shape { geometry IndexedFaceSet 
{ creaseAngle 0.50 coordIndex [0,1,2,-1,0,2,3,-1]
coord Coordinate { point [0.125984 -0.874014 3.29921,0.125984 -0.874014 0.999998,-0.125984 -0.874014 0.999998,-0.125984 -0.874014 3.29921]
}}
appearance Appearance{material USE PIN-02 }}
Shape { geometry IndexedFaceSet 
{ creaseAngle 0.50 coordIndex [0,1,2,-1,3,0,2,-1]
coord Coordinate { point [-0.125984 -0.874014 0.999998,-0.125984 -1.12598 0.999998,-0.125984 -1.12598 3.29921,-0.125984 -0.874014 3.29921]
}}
appearance Appearance{material USE PIN-02 }}
Shape { geometry IndexedFaceSet 
{ creaseAngle 0.50 coordIndex [0,1,2,-1,3,0,2,-1]
coord Coordinate { point [-0.125984 -1.12598 0.999998,0.125984 -1.12598 0.999998,0.125984 -1.12598 3.29921,-0.125984 -1.12598 3.29921]
}}
appearance Appearance{material USE PIN-02 }}
Shape { geometry IndexedFaceSet 
{ creaseAngle 0.50 coordIndex [0,1,2,-1,0,2,3,-1]
coord Coordinate { point [0.125984 -1.12598 3.29921,0.125984 -1.12598 0.999998,0.125984 -0.874014 0.999998,0.125984 -0.874014 3.29921]
}}
appearance Appearance{material USE PIN-02 }}
Shape { geometry IndexedFaceSet 
{ creaseAngle 0.50 coordIndex [0,1,2,-1,3,0,2,-1]
coord Coordinate { point [-0.125984 -2.12598 0.999998,0.125984 -2.12598 0.999998,0.125984 -2.12598 3.29921,-0.125984 -2.12598 3.29921]
}}
appearance Appearance{material USE PIN-02 }}
Shape { geometry IndexedFaceSet 
{ creaseAngle 0.50 coordIndex [0,1,2,-1,0,2,3,-1]
coord Coordinate { point [0.125984 -2.12598 3.29921,0.125984 -2.12598 0.999998,0.125984 -1.87401 0.999998,0.125984 -1.87401 3.29921]
}}
appearance Appearance{material USE PIN-02 }}
Shape { geometry IndexedFaceSet 
{ creaseAngle 0.50 coordIndex [0,1,2,-1,0,2,3,-1]
coord Coordinate { point [0.125984 -1.87401 3.29921,0.125984 -1.87401 0.999998,-0.125984 -1.87401 0.999998,-0.125984 -1.87401 3.29921]
}}
appearance Appearance{material USE PIN-02 }}
Shape { geometry IndexedFaceSet 
{ creaseAngle 0.50 coordIndex [0,1,2,-1,3,0,2,-1]
coord Coordinate { point [-0.125984 -1.87401 0.999998,-0.125984 -2.12598 0.999998,-0.125984 -2.12598 3.29921,-0.125984 -1.87401 3.29921]
}}
appearance Appearance{material USE PIN-02 }}
Shape { geometry IndexedFaceSet 
{ creaseAngle 0.50 coordIndex [0,1,2,-1,0,2,3,-1]
coord Coordinate { point [0.125984 -0.125984 3.29921,0.125984 -0.125984 0.999998,0.125984 0.125984 0.999998,0.125984 0.125984 3.29921]
}}
appearance Appearance{material USE PIN-02 }}
Shape { geometry IndexedFaceSet 
{ creaseAngle 0.50 coordIndex [0,1,2,-1,0,2,3,-1]
coord Coordinate { point [0.125984 0.125984 3.29921,0.125984 0.125984 0.999998,-0.125984 0.125984 0.999998,-0.125984 0.125984 3.29921]
}}
appearance Appearance{material USE PIN-02 }}
Shape { geometry IndexedFaceSet 
{ creaseAngle 0.50 coordIndex [0,1,2,-1,3,0,2,-1]
coord Coordinate { point [-0.125984 0.125984 0.999998,-0.125984 -0.125984 0.999998,-0.125984 -0.125984 3.29921,-0.125984 0.125984 3.29921]
}}
appearance Appearance{material USE PIN-02 }}
Shape { geometry IndexedFaceSet 
{ creaseAngle 0.50 coordIndex [0,1,2,-1,3,0,2,-1]
coord Coordinate { point [-0.125984 -0.125984 0.999998,0.125984 -0.125984 0.999998,0.125984 -0.125984 3.29921,-0.125984 -0.125984 3.29921]
}}
appearance Appearance{material USE PIN-02 }}
Shape { geometry IndexedFaceSet 
{ creaseAngle 0.50 coordIndex [0,1,2,-1,0,3,1,-1]
coord Coordinate { point [-0.062992 -7.06298 -1.1811,0.125984 -7.12597 -1.11811,-0.125984 -7.12597 -1.11811,0.062992 -7.06298 -1.1811]
}}
appearance Appearance{material USE PIN-02 }}
Shape { geometry IndexedFaceSet 
{ creaseAngle 0.50 coordIndex [0,1,2,-1,3,0,2,-1]
coord Coordinate { point [0.125984 -7.12597 -1.11811,0.062992 -7.06298 -1.1811,0.062992 -6.93699 -1.1811,0.125984 -6.874 -1.11811]
}}
appearance Appearance{material USE PIN-02 }}
Shape { geometry IndexedFaceSet 
{ creaseAngle 0.50 coordIndex [0,1,2,-1,1,3,2,-1]
coord Coordinate { point [-0.125984 -6.874 -1.11811,0.125984 -6.874 -1.11811,-0.062992 -6.93699 -1.1811,0.062992 -6.93699 -1.1811]
}}
appearance Appearance{material USE PIN-02 }}
Shape { geometry IndexedFaceSet 
{ creaseAngle 0.50 coordIndex [0,1,2,-1,0,2,3,-1]
coord Coordinate { point [-0.062992 -6.93699 -1.1811,-0.062992 -7.06298 -1.1811,-0.125984 -7.12597 -1.11811,-0.125984 -6.874 -1.11811]
}}
appearance Appearance{material USE PIN-02 }}
Shape { geometry IndexedFaceSet 
{ creaseAngle 0.50 coordIndex [0,1,2,-1,1,3,2,-1]
coord Coordinate { point [-0.125984 -5.874 -1.11811,0.125984 -5.874 -1.11811,-0.062992 -5.937 -1.1811,0.062992 -5.937 -1.1811]
}}
appearance Appearance{material USE PIN-02 }}
Shape { geometry IndexedFaceSet 
{ creaseAngle 0.50 coordIndex [0,1,2,-1,0,2,3,-1]
coord Coordinate { point [-0.062992 -5.937 -1.1811,-0.062992 -6.06298 -1.1811,-0.125984 -6.12597 -1.11811,-0.125984 -5.874 -1.11811]
}}
appearance Appearance{material USE PIN-02 }}
Shape { geometry IndexedFaceSet 
{ creaseAngle 0.50 coordIndex [0,1,2,-1,0,3,1,-1]
coord Coordinate { point [-0.062992 -6.06298 -1.1811,0.125984 -6.12597 -1.11811,-0.125984 -6.12597 -1.11811,0.062992 -6.06298 -1.1811]
}}
appearance Appearance{material USE PIN-02 }}
Shape { geometry IndexedFaceSet 
{ creaseAngle 0.50 coordIndex [0,1,2,-1,3,0,2,-1]
coord Coordinate { point [0.125984 -6.12597 -1.11811,0.062992 -6.06298 -1.1811,0.062992 -5.937 -1.1811,0.125984 -5.874 -1.11811]
}}
appearance Appearance{material USE PIN-02 }}
Shape { geometry IndexedFaceSet 
{ creaseAngle 0.50 coordIndex [0,1,2,-1,3,0,2,-1]
coord Coordinate { point [0.125984 -3.12598 -1.11811,0.062992 -3.06299 -1.1811,0.062992 -2.937 -1.1811,0.125984 -2.87401 -1.11811]
}}
appearance Appearance{material USE PIN-02 }}
Shape { geometry IndexedFaceSet 
{ creaseAngle 0.50 coordIndex [0,1,2,-1,1,3,2,-1]
coord Coordinate { point [-0.125984 -2.87401 -1.11811,0.125984 -2.87401 -1.11811,-0.062992 -2.937 -1.1811,0.062992 -2.937 -1.1811]
}}
appearance Appearance{material USE PIN-02 }}
Shape { geometry IndexedFaceSet 
{ creaseAngle 0.50 coordIndex [0,1,2,-1,0,2,3,-1]
coord Coordinate { point [-0.062992 -2.937 -1.1811,-0.062992 -3.06299 -1.1811,-0.125984 -3.12598 -1.11811,-0.125984 -2.87401 -1.11811]
}}
appearance Appearance{material USE PIN-02 }}
Shape { geometry IndexedFaceSet 
{ creaseAngle 0.50 coordIndex [0,1,2,-1,0,3,1,-1]
coord Coordinate { point [-0.062992 -3.06299 -1.1811,0.125984 -3.12598 -1.11811,-0.125984 -3.12598 -1.11811,0.062992 -3.06299 -1.1811]
}}
appearance Appearance{material USE PIN-02 }}
Shape { geometry IndexedFaceSet 
{ creaseAngle 0.50 coordIndex [0,1,2,-1,1,3,2,-1]
coord Coordinate { point [-0.125984 -4.87401 -1.11811,0.125984 -4.87401 -1.11811,-0.062992 -4.937 -1.1811,0.062992 -4.937 -1.1811]
}}
appearance Appearance{material USE PIN-02 }}
Shape { geometry IndexedFaceSet 
{ creaseAngle 0.50 coordIndex [0,1,2,-1,0,2,3,-1]
coord Coordinate { point [-0.062992 -4.937 -1.1811,-0.062992 -5.06298 -1.1811,-0.125984 -5.12597 -1.11811,-0.125984 -4.87401 -1.11811]
}}
appearance Appearance{material USE PIN-02 }}
Shape { geometry IndexedFaceSet 
{ creaseAngle 0.50 coordIndex [0,1,2,-1,0,3,1,-1]
coord Coordinate { point [-0.062992 -5.06298 -1.1811,0.125984 -5.12597 -1.11811,-0.125984 -5.12597 -1.11811,0.062992 -5.06298 -1.1811]
}}
appearance Appearance{material USE PIN-02 }}
Shape { geometry IndexedFaceSet 
{ creaseAngle 0.50 coordIndex [0,1,2,-1,3,0,2,-1]
coord Coordinate { point [0.125984 -5.12597 -1.11811,0.062992 -5.06298 -1.1811,0.062992 -4.937 -1.1811,0.125984 -4.87401 -1.11811]
}}
appearance Appearance{material USE PIN-02 }}
Shape { geometry IndexedFaceSet 
{ creaseAngle 0.50 coordIndex [0,1,2,-1,3,0,2,-1]
coord Coordinate { point [0.125984 -4.12598 -1.11811,0.062992 -4.06298 -1.1811,0.062992 -3.937 -1.1811,0.125984 -3.87401 -1.11811]
}}
appearance Appearance{material USE PIN-02 }}
Shape { geometry IndexedFaceSet 
{ creaseAngle 0.50 coordIndex [0,1,2,-1,1,3,2,-1]
coord Coordinate { point [-0.125984 -3.87401 -1.11811,0.125984 -3.87401 -1.11811,-0.062992 -3.937 -1.1811,0.062992 -3.937 -1.1811]
}}
appearance Appearance{material USE PIN-02 }}
Shape { geometry IndexedFaceSet 
{ creaseAngle 0.50 coordIndex [0,1,2,-1,0,2,3,-1]
coord Coordinate { point [-0.062992 -3.937 -1.1811,-0.062992 -4.06298 -1.1811,-0.125984 -4.12598 -1.11811,-0.125984 -3.87401 -1.11811]
}}
appearance Appearance{material USE PIN-02 }}
Shape { geometry IndexedFaceSet 
{ creaseAngle 0.50 coordIndex [0,1,2,-1,0,3,1,-1]
coord Coordinate { point [-0.062992 -4.06298 -1.1811,0.125984 -4.12598 -1.11811,-0.125984 -4.12598 -1.11811,0.062992 -4.06298 -1.1811]
}}
appearance Appearance{material USE PIN-02 }}
Shape { geometry IndexedFaceSet 
{ creaseAngle 0.50 coordIndex [0,1,2,-1,1,3,2,-1]
coord Coordinate { point [-0.125984 -0.874014 -1.11811,0.125984 -0.874014 -1.11811,-0.062992 -0.937006 -1.1811,0.062992 -0.937006 -1.1811]
}}
appearance Appearance{material USE PIN-02 }}
Shape { geometry IndexedFaceSet 
{ creaseAngle 0.50 coordIndex [0,1,2,-1,0,2,3,-1]
coord Coordinate { point [-0.062992 -0.937006 -1.1811,-0.062992 -1.06299 -1.1811,-0.125984 -1.12598 -1.11811,-0.125984 -0.874014 -1.11811]
}}
appearance Appearance{material USE PIN-02 }}
Shape { geometry IndexedFaceSet 
{ creaseAngle 0.50 coordIndex [0,1,2,-1,0,3,1,-1]
coord Coordinate { point [-0.062992 -1.06299 -1.1811,0.125984 -1.12598 -1.11811,-0.125984 -1.12598 -1.11811,0.062992 -1.06299 -1.1811]
}}
appearance Appearance{material USE PIN-02 }}
Shape { geometry IndexedFaceSet 
{ creaseAngle 0.50 coordIndex [0,1,2,-1,3,0,2,-1]
coord Coordinate { point [0.125984 -1.12598 -1.11811,0.062992 -1.06299 -1.1811,0.062992 -0.937006 -1.1811,0.125984 -0.874014 -1.11811]
}}
appearance Appearance{material USE PIN-02 }}
Shape { geometry IndexedFaceSet 
{ creaseAngle 0.50 coordIndex [0,1,2,-1,0,3,1,-1]
coord Coordinate { point [-0.062992 -2.06299 -1.1811,0.125984 -2.12598 -1.11811,-0.125984 -2.12598 -1.11811,0.062992 -2.06299 -1.1811]
}}
appearance Appearance{material USE PIN-02 }}
Shape { geometry IndexedFaceSet 
{ creaseAngle 0.50 coordIndex [0,1,2,-1,3,0,2,-1]
coord Coordinate { point [0.125984 -2.12598 -1.11811,0.062992 -2.06299 -1.1811,0.062992 -1.937 -1.1811,0.125984 -1.87401 -1.11811]
}}
appearance Appearance{material USE PIN-02 }}
Shape { geometry IndexedFaceSet 
{ creaseAngle 0.50 coordIndex [0,1,2,-1,1,3,2,-1]
coord Coordinate { point [-0.125984 -1.87401 -1.11811,0.125984 -1.87401 -1.11811,-0.062992 -1.937 -1.1811,0.062992 -1.937 -1.1811]
}}
appearance Appearance{material USE PIN-02 }}
Shape { geometry IndexedFaceSet 
{ creaseAngle 0.50 coordIndex [0,1,2,-1,0,2,3,-1]
coord Coordinate { point [-0.062992 -1.937 -1.1811,-0.062992 -2.06299 -1.1811,-0.125984 -2.12598 -1.11811,-0.125984 -1.87401 -1.11811]
}}
appearance Appearance{material USE PIN-02 }}
Shape { geometry IndexedFaceSet 
{ creaseAngle 0.50 coordIndex [0,1,2,-1,3,0,2,-1]
coord Coordinate { point [0.125984 -0.125984 -1.11811,0.062992 -0.062992 -1.1811,0.062992 0.062992 -1.1811,0.125984 0.125984 -1.11811]
}}
appearance Appearance{material USE PIN-02 }}
Shape { geometry IndexedFaceSet 
{ creaseAngle 0.50 coordIndex [0,1,2,-1,1,3,2,-1]
coord Coordinate { point [-0.125984 0.125984 -1.11811,0.125984 0.125984 -1.11811,-0.062992 0.062992 -1.1811,0.062992 0.062992 -1.1811]
}}
appearance Appearance{material USE PIN-02 }}
Shape { geometry IndexedFaceSet 
{ creaseAngle 0.50 coordIndex [0,1,2,-1,0,2,3,-1]
coord Coordinate { point [-0.062992 0.062992 -1.1811,-0.062992 -0.062992 -1.1811,-0.125984 -0.125984 -1.11811,-0.125984 0.125984 -1.11811]
}}
appearance Appearance{material USE PIN-02 }}
Shape { geometry IndexedFaceSet 
{ creaseAngle 0.50 coordIndex [0,1,2,-1,0,3,1,-1]
coord Coordinate { point [-0.062992 -0.062992 -1.1811,0.125984 -0.125984 -1.11811,-0.125984 -0.125984 -1.11811,0.062992 -0.062992 -1.1811]
}}
appearance Appearance{material USE PIN-02 }}
Shape { geometry IndexedFaceSet 
{ creaseAngle 0.50 coordIndex [0,1,2,-1,1,3,2,-1]
coord Coordinate { point [-0.125984 -7.12597 3.29921,0.125984 -7.12597 3.29921,-0.062992 -7.06298 3.3622,0.062992 -7.06298 3.3622]
}}
appearance Appearance{material USE PIN-02 }}
Shape { geometry IndexedFaceSet 
{ creaseAngle 0.50 coordIndex [0,1,2,-1,0,2,3,-1]
coord Coordinate { point [0.062992 -6.93699 3.3622,0.062992 -7.06298 3.3622,0.125984 -7.12597 3.29921,0.125984 -6.874 3.29921]
}}
appearance Appearance{material USE PIN-02 }}
Shape { geometry IndexedFaceSet 
{ creaseAngle 0.50 coordIndex [0,1,2,-1,0,3,1,-1]
coord Coordinate { point [-0.062992 -6.93699 3.3622,0.125984 -6.874 3.29921,-0.125984 -6.874 3.29921,0.062992 -6.93699 3.3622]
}}
appearance Appearance{material USE PIN-02 }}
Shape { geometry IndexedFaceSet 
{ creaseAngle 0.50 coordIndex [0,1,2,-1,3,0,2,-1]
coord Coordinate { point [-0.125984 -7.12597 3.29921,-0.062992 -7.06298 3.3622,-0.062992 -6.93699 3.3622,-0.125984 -6.874 3.29921]
}}
appearance Appearance{material USE PIN-02 }}
Shape { geometry IndexedFaceSet 
{ creaseAngle 0.50 coordIndex [0,1,2,-1,0,3,1,-1]
coord Coordinate { point [-0.062992 -5.937 3.3622,0.125984 -5.874 3.29921,-0.125984 -5.874 3.29921,0.062992 -5.937 3.3622]
}}
appearance Appearance{material USE PIN-02 }}
Shape { geometry IndexedFaceSet 
{ creaseAngle 0.50 coordIndex [0,1,2,-1,3,0,2,-1]
coord Coordinate { point [-0.125984 -6.12597 3.29921,-0.062992 -6.06298 3.3622,-0.062992 -5.937 3.3622,-0.125984 -5.874 3.29921]
}}
appearance Appearance{material USE PIN-02 }}
Shape { geometry IndexedFaceSet 
{ creaseAngle 0.50 coordIndex [0,1,2,-1,1,3,2,-1]
coord Coordinate { point [-0.125984 -6.12597 3.29921,0.125984 -6.12597 3.29921,-0.062992 -6.06298 3.3622,0.062992 -6.06298 3.3622]
}}
appearance Appearance{material USE PIN-02 }}
Shape { geometry IndexedFaceSet 
{ creaseAngle 0.50 coordIndex [0,1,2,-1,0,2,3,-1]
coord Coordinate { point [0.062992 -5.937 3.3622,0.062992 -6.06298 3.3622,0.125984 -6.12597 3.29921,0.125984 -5.874 3.29921]
}}
appearance Appearance{material USE PIN-02 }}
Shape { geometry IndexedFaceSet 
{ creaseAngle 0.50 coordIndex [0,1,2,-1,0,2,3,-1]
coord Coordinate { point [0.062992 -2.937 3.3622,0.062992 -3.06299 3.3622,0.125984 -3.12598 3.29921,0.125984 -2.87401 3.29921]
}}
appearance Appearance{material USE PIN-02 }}
Shape { geometry IndexedFaceSet 
{ creaseAngle 0.50 coordIndex [0,1,2,-1,0,3,1,-1]
coord Coordinate { point [-0.062992 -2.937 3.3622,0.125984 -2.87401 3.29921,-0.125984 -2.87401 3.29921,0.062992 -2.937 3.3622]
}}
appearance Appearance{material USE PIN-02 }}
Shape { geometry IndexedFaceSet 
{ creaseAngle 0.50 coordIndex [0,1,2,-1,3,0,2,-1]
coord Coordinate { point [-0.125984 -3.12598 3.29921,-0.062992 -3.06299 3.3622,-0.062992 -2.937 3.3622,-0.125984 -2.87401 3.29921]
}}
appearance Appearance{material USE PIN-02 }}
Shape { geometry IndexedFaceSet 
{ creaseAngle 0.50 coordIndex [0,1,2,-1,1,3,2,-1]
coord Coordinate { point [-0.125984 -3.12598 3.29921,0.125984 -3.12598 3.29921,-0.062992 -3.06299 3.3622,0.062992 -3.06299 3.3622]
}}
appearance Appearance{material USE PIN-02 }}
Shape { geometry IndexedFaceSet 
{ creaseAngle 0.50 coordIndex [0,1,2,-1,0,3,1,-1]
coord Coordinate { point [-0.062992 -4.937 3.3622,0.125984 -4.87401 3.29921,-0.125984 -4.87401 3.29921,0.062992 -4.937 3.3622]
}}
appearance Appearance{material USE PIN-02 }}
Shape { geometry IndexedFaceSet 
{ creaseAngle 0.50 coordIndex [0,1,2,-1,3,0,2,-1]
coord Coordinate { point [-0.125984 -5.12597 3.29921,-0.062992 -5.06298 3.3622,-0.062992 -4.937 3.3622,-0.125984 -4.87401 3.29921]
}}
appearance Appearance{material USE PIN-02 }}
Shape { geometry IndexedFaceSet 
{ creaseAngle 0.50 coordIndex [0,1,2,-1,1,3,2,-1]
coord Coordinate { point [-0.125984 -5.12597 3.29921,0.125984 -5.12597 3.29921,-0.062992 -5.06298 3.3622,0.062992 -5.06298 3.3622]
}}
appearance Appearance{material USE PIN-02 }}
Shape { geometry IndexedFaceSet 
{ creaseAngle 0.50 coordIndex [0,1,2,-1,0,2,3,-1]
coord Coordinate { point [0.062992 -4.937 3.3622,0.062992 -5.06298 3.3622,0.125984 -5.12597 3.29921,0.125984 -4.87401 3.29921]
}}
appearance Appearance{material USE PIN-02 }}
Shape { geometry IndexedFaceSet 
{ creaseAngle 0.50 coordIndex [0,1,2,-1,0,2,3,-1]
coord Coordinate { point [0.062992 -3.937 3.3622,0.062992 -4.06298 3.3622,0.125984 -4.12598 3.29921,0.125984 -3.87401 3.29921]
}}
appearance Appearance{material USE PIN-02 }}
Shape { geometry IndexedFaceSet 
{ creaseAngle 0.50 coordIndex [0,1,2,-1,0,3,1,-1]
coord Coordinate { point [-0.062992 -3.937 3.3622,0.125984 -3.87401 3.29921,-0.125984 -3.87401 3.29921,0.062992 -3.937 3.3622]
}}
appearance Appearance{material USE PIN-02 }}
Shape { geometry IndexedFaceSet 
{ creaseAngle 0.50 coordIndex [0,1,2,-1,3,0,2,-1]
coord Coordinate { point [-0.125984 -4.12598 3.29921,-0.062992 -4.06298 3.3622,-0.062992 -3.937 3.3622,-0.125984 -3.87401 3.29921]
}}
appearance Appearance{material USE PIN-02 }}
Shape { geometry IndexedFaceSet 
{ creaseAngle 0.50 coordIndex [0,1,2,-1,1,3,2,-1]
coord Coordinate { point [-0.125984 -4.12598 3.29921,0.125984 -4.12598 3.29921,-0.062992 -4.06298 3.3622,0.062992 -4.06298 3.3622]
}}
appearance Appearance{material USE PIN-02 }}
Shape { geometry IndexedFaceSet 
{ creaseAngle 0.50 coordIndex [0,1,2,-1,0,3,1,-1]
coord Coordinate { point [-0.062992 -0.937006 3.3622,0.125984 -0.874014 3.29921,-0.125984 -0.874014 3.29921,0.062992 -0.937006 3.3622]
}}
appearance Appearance{material USE PIN-02 }}
Shape { geometry IndexedFaceSet 
{ creaseAngle 0.50 coordIndex [0,1,2,-1,3,0,2,-1]
coord Coordinate { point [-0.125984 -1.12598 3.29921,-0.062992 -1.06299 3.3622,-0.062992 -0.937006 3.3622,-0.125984 -0.874014 3.29921]
}}
appearance Appearance{material USE PIN-02 }}
Shape { geometry IndexedFaceSet 
{ creaseAngle 0.50 coordIndex [0,1,2,-1,1,3,2,-1]
coord Coordinate { point [-0.125984 -1.12598 3.29921,0.125984 -1.12598 3.29921,-0.062992 -1.06299 3.3622,0.062992 -1.06299 3.3622]
}}
appearance Appearance{material USE PIN-02 }}
Shape { geometry IndexedFaceSet 
{ creaseAngle 0.50 coordIndex [0,1,2,-1,0,2,3,-1]
coord Coordinate { point [0.062992 -0.937006 3.3622,0.062992 -1.06299 3.3622,0.125984 -1.12598 3.29921,0.125984 -0.874014 3.29921]
}}
appearance Appearance{material USE PIN-02 }}
Shape { geometry IndexedFaceSet 
{ creaseAngle 0.50 coordIndex [0,1,2,-1,1,3,2,-1]
coord Coordinate { point [-0.125984 -2.12598 3.29921,0.125984 -2.12598 3.29921,-0.062992 -2.06299 3.3622,0.062992 -2.06299 3.3622]
}}
appearance Appearance{material USE PIN-02 }}
Shape { geometry IndexedFaceSet 
{ creaseAngle 0.50 coordIndex [0,1,2,-1,0,2,3,-1]
coord Coordinate { point [0.062992 -1.937 3.3622,0.062992 -2.06299 3.3622,0.125984 -2.12598 3.29921,0.125984 -1.87401 3.29921]
}}
appearance Appearance{material USE PIN-02 }}
Shape { geometry IndexedFaceSet 
{ creaseAngle 0.50 coordIndex [0,1,2,-1,0,3,1,-1]
coord Coordinate { point [-0.062992 -1.937 3.3622,0.125984 -1.87401 3.29921,-0.125984 -1.87401 3.29921,0.062992 -1.937 3.3622]
}}
appearance Appearance{material USE PIN-02 }}
Shape { geometry IndexedFaceSet 
{ creaseAngle 0.50 coordIndex [0,1,2,-1,3,0,2,-1]
coord Coordinate { point [-0.125984 -2.12598 3.29921,-0.062992 -2.06299 3.3622,-0.062992 -1.937 3.3622,-0.125984 -1.87401 3.29921]
}}
appearance Appearance{material USE PIN-02 }}
Shape { geometry IndexedFaceSet 
{ creaseAngle 0.50 coordIndex [0,1,2,-1,0,2,3,-1]
coord Coordinate { point [0.062992 0.062992 3.3622,0.062992 -0.062992 3.3622,0.125984 -0.125984 3.29921,0.125984 0.125984 3.29921]
}}
appearance Appearance{material USE PIN-02 }}
Shape { geometry IndexedFaceSet 
{ creaseAngle 0.50 coordIndex [0,1,2,-1,0,3,1,-1]
coord Coordinate { point [-0.062992 0.062992 3.3622,0.125984 0.125984 3.29921,-0.125984 0.125984 3.29921,0.062992 0.062992 3.3622]
}}
appearance Appearance{material USE PIN-02 }}
Shape { geometry IndexedFaceSet 
{ creaseAngle 0.50 coordIndex [0,1,2,-1,3,0,2,-1]
coord Coordinate { point [-0.125984 -0.125984 3.29921,-0.062992 -0.062992 3.3622,-0.062992 0.062992 3.3622,-0.125984 0.125984 3.29921]
}}
appearance Appearance{material USE PIN-02 }}
Shape { geometry IndexedFaceSet 
{ creaseAngle 0.50 coordIndex [0,1,2,-1,1,3,2,-1]
coord Coordinate { point [-0.125984 -0.125984 3.29921,0.125984 -0.125984 3.29921,-0.062992 -0.062992 3.3622,0.062992 -0.062992 3.3622]
}}
appearance Appearance{material USE PIN-02 }}
Shape { geometry IndexedFaceSet 
{ creaseAngle 0.50 coordIndex [0,1,2,-1,1,3,2,-1]
coord Coordinate { point [0.062992 -7.06298 -1.1811,-0.062992 -7.06298 -1.1811,0.062992 -6.93699 -1.1811,-0.062992 -6.93699 -1.1811]
}}
appearance Appearance{material USE PIN-02 }}
Shape { geometry IndexedFaceSet 
{ creaseAngle 0.50 coordIndex [0,1,2,-1,1,3,2,-1]
coord Coordinate { point [0.062992 -6.06298 -1.1811,-0.062992 -6.06298 -1.1811,0.062992 -5.937 -1.1811,-0.062992 -5.937 -1.1811]
}}
appearance Appearance{material USE PIN-02 }}
Shape { geometry IndexedFaceSet 
{ creaseAngle 0.50 coordIndex [0,1,2,-1,1,3,2,-1]
coord Coordinate { point [0.062992 -3.06299 -1.1811,-0.062992 -3.06299 -1.1811,0.062992 -2.937 -1.1811,-0.062992 -2.937 -1.1811]
}}
appearance Appearance{material USE PIN-02 }}
Shape { geometry IndexedFaceSet 
{ creaseAngle 0.50 coordIndex [0,1,2,-1,1,3,2,-1]
coord Coordinate { point [0.062992 -5.06298 -1.1811,-0.062992 -5.06298 -1.1811,0.062992 -4.937 -1.1811,-0.062992 -4.937 -1.1811]
}}
appearance Appearance{material USE PIN-02 }}
Shape { geometry IndexedFaceSet 
{ creaseAngle 0.50 coordIndex [0,1,2,-1,1,3,2,-1]
coord Coordinate { point [0.062992 -4.06298 -1.1811,-0.062992 -4.06298 -1.1811,0.062992 -3.937 -1.1811,-0.062992 -3.937 -1.1811]
}}
appearance Appearance{material USE PIN-02 }}
Shape { geometry IndexedFaceSet 
{ creaseAngle 0.50 coordIndex [0,1,2,-1,1,3,2,-1]
coord Coordinate { point [0.062992 -1.06299 -1.1811,-0.062992 -1.06299 -1.1811,0.062992 -0.937006 -1.1811,-0.062992 -0.937006 -1.1811]
}}
appearance Appearance{material USE PIN-02 }}
Shape { geometry IndexedFaceSet 
{ creaseAngle 0.50 coordIndex [0,1,2,-1,1,3,2,-1]
coord Coordinate { point [0.062992 -2.06299 -1.1811,-0.062992 -2.06299 -1.1811,0.062992 -1.937 -1.1811,-0.062992 -1.937 -1.1811]
}}
appearance Appearance{material USE PIN-02 }}
Shape { geometry IndexedFaceSet 
{ creaseAngle 0.50 coordIndex [0,1,2,-1,1,3,2,-1]
coord Coordinate { point [0.062992 -0.062992 -1.1811,-0.062992 -0.062992 -1.1811,0.062992 0.062992 -1.1811,-0.062992 0.062992 -1.1811]
}}
appearance Appearance{material USE PIN-02 }}
Shape { geometry IndexedFaceSet 
{ creaseAngle 0.50 coordIndex [0,1,2,-1,0,3,1,-1]
coord Coordinate { point [0.062992 -6.93699 3.3622,-0.062992 -7.06298 3.3622,0.062992 -7.06298 3.3622,-0.062992 -6.93699 3.3622]
}}
appearance Appearance{material USE PIN-02 }}
Shape { geometry IndexedFaceSet 
{ creaseAngle 0.50 coordIndex [0,1,2,-1,0,3,1,-1]
coord Coordinate { point [0.062992 -5.937 3.3622,-0.062992 -6.06298 3.3622,0.062992 -6.06298 3.3622,-0.062992 -5.937 3.3622]
}}
appearance Appearance{material USE PIN-02 }}
Shape { geometry IndexedFaceSet 
{ creaseAngle 0.50 coordIndex [0,1,2,-1,0,3,1,-1]
coord Coordinate { point [0.062992 -2.937 3.3622,-0.062992 -3.06299 3.3622,0.062992 -3.06299 3.3622,-0.062992 -2.937 3.3622]
}}
appearance Appearance{material USE PIN-02 }}
Shape { geometry IndexedFaceSet 
{ creaseAngle 0.50 coordIndex [0,1,2,-1,0,3,1,-1]
coord Coordinate { point [0.062992 -4.937 3.3622,-0.062992 -5.06298 3.3622,0.062992 -5.06298 3.3622,-0.062992 -4.937 3.3622]
}}
appearance Appearance{material USE PIN-02 }}
Shape { geometry IndexedFaceSet 
{ creaseAngle 0.50 coordIndex [0,1,2,-1,0,3,1,-1]
coord Coordinate { point [0.062992 -3.937 3.3622,-0.062992 -4.06298 3.3622,0.062992 -4.06298 3.3622,-0.062992 -3.937 3.3622]
}}
appearance Appearance{material USE PIN-02 }}
Shape { geometry IndexedFaceSet 
{ creaseAngle 0.50 coordIndex [0,1,2,-1,0,3,1,-1]
coord Coordinate { point [0.062992 -0.937006 3.3622,-0.062992 -1.06299 3.3622,0.062992 -1.06299 3.3622,-0.062992 -0.937006 3.3622]
}}
appearance Appearance{material USE PIN-02 }}
Shape { geometry IndexedFaceSet 
{ creaseAngle 0.50 coordIndex [0,1,2,-1,0,3,1,-1]
coord Coordinate { point [0.062992 -1.937 3.3622,-0.062992 -2.06299 3.3622,0.062992 -2.06299 3.3622,-0.062992 -1.937 3.3622]
}}
appearance Appearance{material USE PIN-02 }}
Shape { geometry IndexedFaceSet 
{ creaseAngle 0.50 coordIndex [0,1,2,-1,0,3,1,-1]
coord Coordinate { point [0.062992 0.062992 3.3622,-0.062992 -0.062992 3.3622,0.062992 -0.062992 3.3622,-0.062992 0.062992 3.3622]
}}
appearance Appearance{material USE PIN-02 }}
